…
``` r
class(Pilot)
```

    ## [1] "data.frame"

The pilot study dataset has 36 rows and 15 columns. It is classified as
a data frame.

``` r
#?cancer_sample
print(cancer_sample)
```

    ## # A tibble: 569 x 32
    ##          ID diagnosis radius_mean texture_mean perimeter_mean area_mean
    ##       <dbl> <chr>           <dbl>        <dbl>          <dbl>     <dbl>
    ##  1   842302 M                18.0         10.4          123.      1001 
    ##  2   842517 M                20.6         17.8          133.      1326 
    ##  3 84300903 M                19.7         21.2          130       1203 
    ##  4 84348301 M                11.4         20.4           77.6      386.
    ##  5 84358402 M                20.3         14.3          135.      1297 
    ##  6   843786 M                12.4         15.7           82.6      477.
    ##  7   844359 M                18.2         20.0          120.      1040 
    ##  8 84458202 M                13.7         20.8           90.2      578.
    ##  9   844981 M                13           21.8           87.5      520.
    ## 10 84501001 M                12.5         24.0           84.0      476.
    ## # ... with 559 more rows, and 26 more variables: smoothness_mean <dbl>,
    ## #   compactness_mean <dbl>, concavity_mean <dbl>, concave_points_mean <dbl>,
    ## #   symmetry_mean <dbl>, fractal_dimension_mean <dbl>, radius_se <dbl>,
    ## #   texture_se <dbl>, perimeter_se <dbl>, area_se <dbl>, smoothness_se <dbl>,
    ## #   compactness_se <dbl>, concavity_se <dbl>, concave_points_se <dbl>,
    ## #   symmetry_se <dbl>, fractal_dimension_se <dbl>, radius_worst <dbl>,
    ## #   texture_worst <dbl>, perimeter_worst <dbl>, area_worst <dbl>, ...
…
``` r
class(cancer_sample)
```

    ## [1] "spec_tbl_df" "tbl_df"      "tbl"         "data.frame"

The cancer_sample data set has 596 rows, 32 columns, and is classified
as a “list”/“data.frame”.

``` r
#?parking_meters
print(parking_meters)
```

    ## # A tibble: 10,032 x 22
    ##    meter_head  r_mf_9a_6p r_mf_6p_10 r_sa_9a_6p r_sa_6p_10 r_su_9a_6p r_su_6p_10
    ##    <chr>       <chr>      <chr>      <chr>      <chr>      <chr>      <chr>     
    ##  1 Twin        $2.00      $4.00      $2.00      $4.00      $2.00      $4.00     
    ##  2 Pay Station $1.00      $1.00      $1.00      $1.00      $1.00      $1.00     
    ##  3 Twin        $1.00      $1.00      $1.00      $1.00      $1.00      $1.00     
    ##  4 Single      $1.00      $1.00      $1.00      $1.00      $1.00      $1.00     
    ##  5 Twin        $2.00      $1.00      $2.00      $1.00      $2.00      $1.00     
    ##  6 Twin        $2.00      $1.00      $2.00      $1.00      $2.00      $1.00     
    ##  7 Twin        $2.00      $3.00      $2.00      $3.00      $2.00      $3.00     
    ##  8 Single      $2.00      $3.00      $2.00      $3.00      $2.00      $3.00     
    ##  9 Twin        $4.00      $1.00      $4.00      $1.00      $4.00      $1.00     
    ## 10 Twin        $2.00      $1.00      $2.00      $1.00      $2.00      $1.00     
    ## # ... with 10,022 more rows, and 15 more variables: rate_misc <chr>,
    ## #   time_in_effect <chr>, t_mf_9a_6p <chr>, t_mf_6p_10 <chr>, t_sa_9a_6p <chr>,
    ## #   t_sa_6p_10 <chr>, t_su_9a_6p <chr>, t_su_6p_10 <chr>, time_misc <chr>,
    ## #   credit_card <chr>, pay_phone <chr>, longitude <dbl>, latitude <dbl>,
    ## #   geo_local_area <chr>, meter_id <chr>
…
``` r
class(parking_meters)
```

    ## [1] "tbl_df"     "tbl"        "data.frame"

The parking_meter data set has 10,032 rows, 22 columns, and is
classified as a “list”/“data.frame”.

``` r
#?steam_games
print(steam_games)
```

    ## # A tibble: 40,833 x 21
    ##       id url    types name  desc_snippet recent_reviews all_reviews release_date
    ##    <dbl> <chr>  <chr> <chr> <chr>        <chr>          <chr>       <chr>       
    ##  1     1 https~ app   DOOM  Now include~ Very Positive~ Very Posit~ May 12, 2016
    ##  2     2 https~ app   PLAY~ PLAYERUNKNO~ Mixed,(6,214)~ Mixed,(836~ Dec 21, 2017
    ##  3     3 https~ app   BATT~ Take comman~ Mixed,(166),-~ Mostly Pos~ Apr 24, 2018
    ##  4     4 https~ app   DayZ  The post-so~ Mixed,(932),-~ Mixed,(167~ Dec 13, 2018
    ##  5     5 https~ app   EVE ~ EVE Online ~ Mixed,(287),-~ Mostly Pos~ May 6, 2003 
    ##  6     6 https~ bund~ Gran~ Grand Theft~ NaN            NaN         NaN         
    ##  7     7 https~ app   Devi~ The ultimat~ Very Positive~ Very Posit~ Mar 7, 2019 
    ##  8     8 https~ app   Huma~ Human: Fall~ Very Positive~ Very Posit~ Jul 22, 2016
    ##  9     9 https~ app   They~ They Are Bi~ Very Positive~ Very Posit~ Dec 12, 2017
    ## 10    10 https~ app   Warh~ In a world ~ <NA>           Mixed,(904~ May 31, 2019
    ## # ... with 40,823 more rows, and 13 more variables: developer <chr>,
    ## #   publisher <chr>, popular_tags <chr>, game_details <chr>, languages <chr>,
    ## #   achievements <dbl>, genre <chr>, game_description <chr>,
    ## #   mature_content <chr>, minimum_requirements <chr>,
    ## #   recommended_requirements <chr>, original_price <dbl>, discount_price <dbl>
…
