…
``` r
Data2<-as_tibble(Pilot) %>%
  select(stem_diam, berry_weight) %>%
  arrange(desc(stem_diam), berry_weight) %>%
  rename(Berry_weight_g = berry_weight) %>%
  rename(Stem_diam_cm = stem_diam)
head(Data2, n=36)
```

    ## # A tibble: 36 x 2
    ##    Stem_diam_cm Berry_weight_g
    ##           <dbl>          <dbl>
    ##  1         9.03          11.5 
    ##  2         8.42           8.28
    ##  3         7.78           0.78
    ##  4         7.64           4.44
    ##  5         7.32          11.2 
    ##  6         7.2           32.4 
    ##  7         7.13          18.2 
    ##  8         7.01           1.81
    ##  9         6.67          15.5 
    ## 10         6.53          23.4 
    ## # ... with 26 more rows
…
